ALU/simulation/qsim/ALU.msim.vcd
$comment
	File created using the following command:
		vcd file ALU.msim.vcd -direction
$end
$date
	Wed Nov 22 19:46:45 2023
$end
$version
	ModelSim Version 10.1d
$end
$timescale
	1ps
$end
$scope module GPP_vlg_vec_tst $end
$var reg 8 ! A [7:0] $end
$var reg 8 " B [7:0] $end
$var reg 1 # Clock $end
$var reg 1 $ data_in $end
$var reg 1 % En_Decod $end
$var reg 1 & FSM_Reset $end
$var reg 1 ' Reset_A $end
$var reg 1 ( Reset_B $end
$var wire 1 ) R1 [0] $end
$var wire 1 * R1 [1] $end
$var wire 1 + R1 [2] $end
$var wire 1 , R1 [3] $end
$var wire 1 - R1 [4] $end
$var wire 1 . R1 [5] $end
$var wire 1 / R1 [6] $end
$var wire 1 0 R2 [0] $end
$var wire 1 1 R2 [1] $end
$var wire 1 2 R2 [2] $end
$var wire 1 3 R2 [3] $end
$var wire 1 4 R2 [4] $end
$var wire 1 5 R2 [5] $end
$var wire 1 6 R2 [6] $end
$var wire 1 7 SignLED [0] $end
$var wire 1 8 SignLED [1] $end
$var wire 1 9 SignLED [2] $end
$var wire 1 : SignLED [3] $end
$var wire 1 ; SignLED [4] $end
$var wire 1 < SignLED [5] $end
$var wire 1 = SignLED [6] $end
$var wire 1 > StudentIdLed [0] $end
$var wire 1 ? StudentIdLed [1] $end
$var wire 1 @ StudentIdLed [2] $end
$var wire 1 A StudentIdLed [3] $end
$var wire 1 B StudentIdLed [4] $end
$var wire 1 C StudentIdLed [5] $end
$var wire 1 D StudentIdLed [6] $end
$var wire 1 E sampler $end
$scope module i1 $end
$var wire 1 F gnd $end
$var wire 1 G vcc $end
$var wire 1 H unknown $end
$var tri1 1 I devclrn $end
$var tri1 1 J devpor $end
$var tri1 1 K devoe $end
$var wire 1 L inst14|Add1~0_combout $end
$var wire 1 M inst14|Add2~6_combout $end
$var wire 1 N inst14|Add0~6_combout $end
$var wire 1 O inst14|Selector7~4_combout $end
$var wire 1 P inst14|Selector7~9_combout $end
$var wire 1 Q inst14|Selector6~3_combout $end
$var wire 1 R inst14|Selector5~2_combout $end
$var wire 1 S inst14|Selector3~4_combout $end
$var wire 1 T inst14|Selector3~10_combout $end
$var wire 1 U inst14|Selector1~9_combout $end
$var wire 1 V inst14|Selector4~8_combout $end
$var wire 1 W FSM_Reset~combout $end
$var wire 1 X FSM_Reset~clkctrl_outclk $end
$var wire 1 Y data_in~combout $end
$var wire 1 Z inst7|yfsm.s4~regout $end
$var wire 1 [ inst7|yfsm.s5~regout $end
$var wire 1 \ inst7|yfsm.s6~regout $end
$var wire 1 ] inst7|yfsm.s7~regout $end
$var wire 1 ^ inst7|yfsm.s8~regout $end
$var wire 1 _ inst7|yfsm.s0~0_combout $end
$var wire 1 ` inst7|yfsm.s0~regout $end
$var wire 1 a inst7|yfsm.s1~0_combout $end
$var wire 1 b inst7|yfsm.s1~regout $end
$var wire 1 c inst7|yfsm.s2~regout $end
$var wire 1 d inst7|yfsm.s3~regout $end
$var wire 1 e inst14|Selector7~2_combout $end
$var wire 1 f inst14|Selector7~0_combout $end
$var wire 1 g Reset_B~combout $end
$var wire 1 h Reset_B~clkctrl_outclk $end
$var wire 1 i Reset_A~combout $end
$var wire 1 j Reset_A~clkctrl_outclk $end
$var wire 1 k inst14|Selector7~1_combout $end
$var wire 1 l inst14|Selector7~3_combout $end
$var wire 1 m inst14|Selector7~5_combout $end
$var wire 1 n inst14|Add0~0_combout $end
$var wire 1 o inst14|Selector7~6_combout $end
$var wire 1 p inst7|WideOr13~combout $end
$var wire 1 q inst14|Add2~0_combout $end
$var wire 1 r inst14|LessThan0~1_cout $end
$var wire 1 s inst14|LessThan0~3_cout $end
$var wire 1 t inst14|LessThan0~5_cout $end
$var wire 1 u inst14|LessThan0~7_cout $end
$var wire 1 v inst14|LessThan0~9_cout $end
$var wire 1 w inst14|LessThan0~11_cout $end
$var wire 1 x inst14|LessThan0~13_cout $end
$var wire 1 y inst14|LessThan0~14_combout $end
$var wire 1 z inst14|Result~1_combout $end
$var wire 1 { inst14|Selector7~7_combout $end
$var wire 1 | inst14|Selector7~8_combout $end
$var wire 1 } inst14|Selector7~10_combout $end
$var wire 1 ~ En_Decod~combout $end
$var wire 1 !! inst14|Result[3]~0_combout $end
$var wire 1 "! inst14|Selector5~3_combout $end
$var wire 1 #! inst14|Result[3]~3_combout $end
$var wire 1 $! inst14|Result[3]~2_combout $end
$var wire 1 %! inst14|Selector6~7_combout $end
$var wire 1 &! inst14|Add1~1 $end
$var wire 1 '! inst14|Add1~3 $end
$var wire 1 (! inst14|Add1~4_combout $end
$var wire 1 )! inst14|Selector5~4_combout $end
$var wire 1 *! inst14|Add2~1 $end
$var wire 1 +! inst14|Add2~3 $end
$var wire 1 ,! inst14|Add2~4_combout $end
$var wire 1 -! inst14|Add0~1 $end
$var wire 1 .! inst14|Add0~3 $end
$var wire 1 /! inst14|Add0~4_combout $end
$var wire 1 0! inst14|Selector5~8_combout $end
$var wire 1 1! inst14|Selector5~5_combout $end
$var wire 1 2! inst14|Selector5~6_combout $end
$var wire 1 3! inst14|Selector5~7_combout $end
$var wire 1 4! inst14|Selector6~9_combout $end
$var wire 1 5! inst14|Selector6~4_combout $end
$var wire 1 6! inst14|Add1~2_combout $end
$var wire 1 7! inst14|Selector6~5_combout $end
$var wire 1 8! inst14|Result[3]~4_combout $end
$var wire 1 9! inst14|Add2~2_combout $end
$var wire 1 :! inst14|Add0~2_combout $end
$var wire 1 ;! inst14|Selector6~11_combout $end
$var wire 1 <! inst14|Selector6~6_combout $end
$var wire 1 =! inst14|Selector6~8_combout $end
$var wire 1 >! inst14|Selector6~10_combout $end
$var wire 1 ?! inst14|Selector4~3_combout $end
$var wire 1 @! inst14|Selector6~2_combout $end
$var wire 1 A! inst14|Selector4~2_combout $end
$var wire 1 B! inst14|Add1~5 $end
$var wire 1 C! inst14|Add1~6_combout $end
$var wire 1 D! inst14|Selector4~4_combout $end
$var wire 1 E! inst14|Selector4~5_combout $end
$var wire 1 F! inst14|Selector4~6_combout $end
$var wire 1 G! inst14|Selector4~7_combout $end
$var wire 1 H! inst18|Mux0~0_combout $end
$var wire 1 I! inst18|Mux1~0_combout $end
$var wire 1 J! inst18|Mux2~0_combout $end
$var wire 1 K! inst18|Mux3~0_combout $end
$var wire 1 L! inst18|Mux4~0_combout $end
$var wire 1 M! inst18|Mux5~0_combout $end
$var wire 1 N! inst18|Mux6~0_combout $end
$var wire 1 O! inst14|Selector0~3_combout $end
$var wire 1 P! inst14|Selector0~2_combout $end
$var wire 1 Q! inst14|Add1~7 $end
$var wire 1 R! inst14|Add1~9 $end
$var wire 1 S! inst14|Add1~11 $end
$var wire 1 T! inst14|Add1~13 $end
$var wire 1 U! inst14|Add1~14_combout $end
$var wire 1 V! inst14|Selector0~4_combout $end
$var wire 1 W! inst14|Add0~5 $end
$var wire 1 X! inst14|Add0~7 $end
$var wire 1 Y! inst14|Add0~9 $end
$var wire 1 Z! inst14|Add0~11 $end
$var wire 1 [! inst14|Add0~13 $end
$var wire 1 \! inst14|Add0~14_combout $end
$var wire 1 ]! inst14|Add2~5 $end
$var wire 1 ^! inst14|Add2~7 $end
$var wire 1 _! inst14|Add2~9 $end
$var wire 1 `! inst14|Add2~11 $end
$var wire 1 a! inst14|Add2~13 $end
$var wire 1 b! inst14|Add2~14_combout $end
$var wire 1 c! inst14|Selector0~8_combout $end
$var wire 1 d! inst14|Selector0~5_combout $end
$var wire 1 e! inst14|Selector0~6_combout $end
$var wire 1 f! inst14|Selector0~7_combout $end
$var wire 1 g! inst14|Selector1~10_combout $end
$var wire 1 h! inst14|Selector1~14_combout $end
$var wire 1 i! inst14|Selector1~11_combout $end
$var wire 1 j! inst14|Add1~12_combout $end
$var wire 1 k! inst14|Add2~12_combout $end
$var wire 1 l! inst14|Selector1~8_combout $end
$var wire 1 m! inst14|Selector1~13_combout $end
$var wire 1 n! inst14|Add0~12_combout $end
$var wire 1 o! inst14|Selector1~4_combout $end
$var wire 1 p! inst14|Selector1~5_combout $end
$var wire 1 q! inst14|Selector1~6_combout $end
$var wire 1 r! inst14|Selector1~7_combout $end
$var wire 1 s! inst14|Selector1~12_combout $end
$var wire 1 t! inst14|Selector3~14_combout $end
$var wire 1 u! inst14|Selector3~9_combout $end
$var wire 1 v! inst14|Selector3~11_combout $end
$var wire 1 w! inst14|Selector3~5_combout $end
$var wire 1 x! inst14|Selector3~6_combout $end
$var wire 1 y! inst14|Add0~8_combout $end
$var wire 1 z! inst14|Selector3~7_combout $end
$var wire 1 {! inst14|Add1~8_combout $end
$var wire 1 |! inst14|Add2~8_combout $end
$var wire 1 }! inst14|Selector3~8_combout $end
$var wire 1 ~! inst14|Selector3~13_combout $end
$var wire 1 !" inst14|Selector3~12_combout $end
$var wire 1 "" inst14|Selector2~2_combout $end
$var wire 1 #" inst14|Selector2~3_combout $end
$var wire 1 $" inst14|Add1~10_combout $end
$var wire 1 %" inst14|Selector2~4_combout $end
$var wire 1 &" inst14|Add0~10_combout $end
$var wire 1 '" inst14|Add2~10_combout $end
$var wire 1 (" inst14|Selector2~8_combout $end
$var wire 1 )" inst14|Selector2~5_combout $end
$var wire 1 *" inst14|Selector2~6_combout $end
$var wire 1 +" inst14|Selector2~7_combout $end
$var wire 1 ," inst21|Mux0~0_combout $end
$var wire 1 -" inst21|Mux1~0_combout $end
$var wire 1 ." inst21|Mux2~0_combout $end
$var wire 1 /" inst21|Mux3~0_combout $end
$var wire 1 0" inst21|Mux4~0_combout $end
$var wire 1 1" inst21|Mux5~0_combout $end
$var wire 1 2" inst21|Mux6~0_combout $end
$var wire 1 3" Clock~combout $end
$var wire 1 4" Clock~clkctrl_outclk $end
$var wire 1 5" inst14|Neg~0_combout $end
$var wire 1 6" inst14|Neg~regout $end
$var wire 1 7" inst7|WideOr9~0_combout $end
$var wire 1 8" inst17|Mux0~2_combout $end
$var wire 1 9" inst17|Mux0~3_combout $end
$var wire 1 :" inst7|WideOr10~combout $end
$var wire 1 ;" inst17|Mux4~4_combout $end
$var wire 1 <" inst17|Mux0~4_combout $end
$var wire 1 =" inst17|Mux6~4_combout $end
$var wire 1 >" inst2|Q [7] $end
$var wire 1 ?" inst2|Q [6] $end
$var wire 1 @" inst2|Q [5] $end
$var wire 1 A" inst2|Q [4] $end
$var wire 1 B" inst2|Q [3] $end
$var wire 1 C" inst2|Q [2] $end
$var wire 1 D" inst2|Q [1] $end
$var wire 1 E" inst2|Q [0] $end
$var wire 1 F" inst14|Result [7] $end
$var wire 1 G" inst14|Result [6] $end
$var wire 1 H" inst14|Result [5] $end
$var wire 1 I" inst14|Result [4] $end
$var wire 1 J" inst14|Result [3] $end
$var wire 1 K" inst14|Result [2] $end
$var wire 1 L" inst14|Result [1] $end
$var wire 1 M" inst14|Result [0] $end
$var wire 1 N" inst|Q [7] $end
$var wire 1 O" inst|Q [6] $end
$var wire 1 P" inst|Q [5] $end
$var wire 1 Q" inst|Q [4] $end
$var wire 1 R" inst|Q [3] $end
$var wire 1 S" inst|Q [2] $end
$var wire 1 T" inst|Q [1] $end
$var wire 1 U" inst|Q [0] $end
$var wire 1 V" B~combout [7] $end
$var wire 1 W" B~combout [6] $end
$var wire 1 X" B~combout [5] $end
$var wire 1 Y" B~combout [4] $end
$var wire 1 Z" B~combout [3] $end
$var wire 1 [" B~combout [2] $end
$var wire 1 \" B~combout [1] $end
$var wire 1 ]" B~combout [0] $end
$var wire 1 ^" A~combout [7] $end
$var wire 1 _" A~combout [6] $end
$var wire 1 `" A~combout [5] $end
$var wire 1 a" A~combout [4] $end
$var wire 1 b" A~combout [3] $end
$var wire 1 c" A~combout [2] $end
$var wire 1 d" A~combout [1] $end
$var wire 1 e" A~combout [0] $end
$upscope $end
$upscope $end
$enddefinitions $end
#0
$dumpvars
b110010 !
b111100 "
0#
1$
1%
0&
1'
1(
1/
0.
0-
0,
0+
0*
0)
16
05
04
03
02
01
00
1=
1<
1;
1:
19
18
17
0D
0C
1B
0A
0@
1?
0>
xE
0F
1G
xH
1I
1J
1K
0L
0M
0N
0O
1P
0Q
0R
1S
0T
0U
0V
0W
0X
1Y
0Z
0[
0\
0]
0^
1_
0`
1a
0b
0c
0d
1e
1f
1g
1h
1i
1j
0k
0l
0m
0n
0o
0p
0q
0r
1s
0t
1u
0v
1w
0x
0y
0z
0{
0|
0}
1~
1!!
0"!
0#!
0$!
1%!
1&!
0'!
0(!
1)!
1*!
0+!
0,!
0-!
1.!
0/!
00!
01!
02!
03!
04!
05!
06!
17!
08!
09!
0:!
0;!
0<!
0=!
0>!
0?!
0@!
0A!
1B!
0C!
1D!
0E!
0F!
0G!
0H!
0I!
0J!
0K!
0L!
0M!
0N!
0O!
0P!
0Q!
1R!
0S!
1T!
0U!
1V!
0W!
1X!
0Y!
1Z!
0[!
0\!
1]!
0^!
1_!
0`!
1a!
0b!
0c!
0d!
0e!
0f!
0g!
0h!
0i!
0j!
0k!
0l!
1m!
0n!
1o!
0p!
1q!
0r!
0s!
0t!
0u!
0v!
0w!
1x!
0y!
0z!
0{!
0|!
0}!
1~!
0!"
0""
0#"
0$"
1%"
0&"
0'"
0("
0)"
0*"
0+"
0,"
0-"
0."
0/"
00"
01"
02"
03"
04"
05"
06"
07"
08"
09"
1:"
0;"
0<"
1="
0E"
0D"
0C"
0B"
0A"
0@"
0?"
0>"
0M"
0L"
0K"
0J"
0I"
0H"
0G"
0F"
0U"
0T"
0S"
0R"
0Q"
0P"
0O"
0N"
0]"
0\"
1["
1Z"
1Y"
1X"
0W"
0V"
0e"
1d"
0c"
0b"
1a"
1`"
0_"
0^"
$end
#10000
1#
13"
14"
0E
1P"
1A"
1T"
1C"
1B"
1Q"
1@"
1b
1`
0%"
0Z!
0x!
1t!
1Y!
07!
1:!
1+!
19!
16!
0s
1/!
1,!
0)!
0B!
1(!
0D!
1Q!
1C!
1N
1M
0S
15"
0~!
0m!
1p
0f
0="
0:"
0a
1n!
1&"
1;!
0,!
17!
10!
0C!
1)!
0R!
1{!
1D!
1V
0q!
0V!
1;"
0?
1D
1r!
1<!
00!
11!
0D!
1S!
1$"
1E!
0B
1=!
01!
12!
0T!
1j!
1%"
1F!
1>!
02!
13!
1U!
1G!
03!
1V!
#20000
0#
03"
04"
1E
#30000
1#
13"
14"
0E
16"
1J"
1L"
1c
0b
1N!
1K!
0e
18"
05"
1("
1~!
1m!
10!
0p
1f
0=
1@!
0%!
1|
1<"
19"
1)"
1s!
11!
0%"
1q!
07!
0)!
0;"
1,
1A
0/
1p!
1P!
1A!
1U
1R
0~!
0m!
0F!
0=!
1}
1C
1>
1B
1e!
1F!
1i!
12!
0s!
0G!
0>!
1f!
1G!
1s!
13!
#40000
0#
03"
04"
1E
#50000
1#
13"
14"
0E
06"
1G"
1F"
0L"
1K"
1M"
1d
0c
1."
1-"
1M!
0K!
1H!
0("
00!
1$!
1p
1=
0)"
01!
1u!
1S
1Q
1%"
17!
1)!
1{
12
11
1.
0,
1)
1=!
1>!
#60000
0#
03"
04"
1E
#70000
1#
13"
14"
0E
1L"
0d
1Z
0M!
1K!
1J!
1I!
0H!
1("
18!
10!
0$!
0p
1e
09"
1k
0P
1)"
1}!
1l!
1d!
0E!
11!
0u!
1%!
0S
0Q
0%"
07!
0)!
0{
0@!
1l
0}
0.
1,
1+
1*
0)
0>
1*"
1~!
1m!
0)"
0<!
01!
0|
0p!
0P!
0A!
0U
0R
1}
1+"
0*"
0=!
02!
0F!
0i!
0+"
0>!
03!
0G!
#80000
0#
03"
04"
1E
#90000
1#
13"
14"
0E
0J"
0L"
0K"
1[
0Z
0N!
1M!
1L!
0J!
0I!
1H!
0<"
08"
17"
1$!
0f
1O
19"
08!
0k
09"
1="
1;"
14!
0%!
0l
1)"
0}!
0l!
0d!
1E!
1<!
11!
1.
1-
0+
0*
1)
0C
0A
1>
1/
1+"
1w!
1v!
0~!
0m!
0e!
0}
0>
0D
0B
1x!
1!"
0s!
0f!
#100000
0#
03"
04"
1E
#110000
1#
13"
14"
0E
1H"
1I"
0G"
0F"
0M"
1\
0[
12"
11"
10"
0."
0-"
0M!
0L!
0K!
0H!
1#!
18"
0$!
1f
1P
0O
1?!
15!
04!
1"!
0;"
15
14
02
01
0.
0-
0,
0)
1A
06
1F!
1=!
0+"
0w!
0v!
12!
1B
1G!
1>!
0x!
0!"
13!
#120000
0#
03"
04"
1E
#130000
1#
13"
14"
0E
0H"
0I"
1J"
1L"
1K"
1]
0\
02"
01"
00"
1N!
1J!
1I!
1;"
1:"
08"
0t!
0#!
0!!
0P
1<"
07"
0<"
1#"
1T
0;"
05
04
1+
1*
1?
0A
1C
16
0/
0B
1*"
1v!
0C
1B
1+"
1!"
#140000
0#
03"
04"
1E
#150000
1#
13"
14"
0E
1H"
1I"
1^
0]
12"
11"
10"
17"
1#!
1o
0_
0="
0:"
18"
1="
1g!
1O!
0?!
05!
0"!
1}
15
14
0?
1A
06
1D
1i!
1e!
0F!
0=!
02!
0D
1s!
1f!
0G!
0>!
03!
#160000
0#
03"
04"
1E
#170000
1#
13"
14"
0E
1G"
1F"
0J"
0L"
0K"
1M"
0`
0^
01"
00"
1/"
1."
1-"
0N!
1M!
1L!
1K!
0J!
0I!
1H!
1;"
1:"
08"
1a
1<"
07"
1t!
0#!
1!!
0o
1_
1P
0<"
0;"
0v!
0#"
0g!
0O!
1%!
0T
0}
05
04
13
12
11
1.
1-
1,
0+
0*
1)
1?
0A
1C
1/
0B
0!"
0i!
0e!
1~!
1m!
1F!
1=!
12!
0C
1B
0f!
1G!
1>!
13!
